{
  "scan": {
    "analysis": {
      "0": {
        "algorithm": "OccGlobalThresholdTune"
      },
      "n_count": 1
    },
    "histogrammer": {
      "0": {
        "algorithm": "OccupancyMap",
        "config": {}
      },
      "1": {
        "algorithm": "TotMap",
        "config": {}
      },
      "2": {
        "algorithm": "Tot2Map",
        "config": {}
      },
      "3": {
        "algorithm": "L1Dist",
        "config": {}
      },
      "4": {
        "algorithm": "HitsPerEvent",
        "config": {}
      },
      "n_count": 5
    },
    "loops": [
      { "config": {
          "max": 500,
          "min": 0,
          "step": 16,
          "parameter": "DiffVth1",
          "pixelRegs": 1

        },
        "loopAction": "Rd53aGlobalFeedback"
      },
      {
        "config": {
          "max": 64,
          "min": 0,
          "step": 1
        },
        "loopAction": "Rd53aMaskLoop"
      },
      {
        "config": {
          "max": 50,
          "min": 33,
          "step": 1,
          "nSteps": 4
        },
        "loopAction": "Rd53aCoreColLoop"
      },
      {
        "config": {
          "count": 100,
          "delay": 48,
          "extTrigger": false,
          "frequency": 20000,
          "noInject": false,
          "time": 0
        },
        "loopAction": "Rd53aTriggerLoop"
      },
      {
        "loopAction": "StdDataLoop"
      }
    ],
    "name": "DiffGlobalThresholdTune",
    "prescan": {
        "InjEnDig": 0,
        "LatencyConfig": 48,
        "GlobalPulseRt": 16384,
        "SyncVth":500,
        "LinVth": 500
    }
  }
}
